^D:\WORKSPACE\ASTRAVIEWERCOMP\BUILD\CMAKEFILES\3.11.0\COMPILERIDCXX\CMAKECXXCOMPILERID.CPP
C:\PROGRAM FILES (X86)\MICROSOFT VISUAL STUDIO 12.0\VC\BIN\1041\CLUI.DLL
C:\WINDOWS\GLOBALIZATION\SORTING\SORTDEFAULT.NLS
C:\WINDOWS\SYSTEM32\TZRES.DLL
