^D:\WORKSPACE\ASTRAVIEWERCOMP\BUILD\CMAKEFILES\155CE0A238156DA1EB0CD7B19E59215E\GENERATE.STAMP.RULE
D:\WORKSPACE\ASTRAVIEWERCOMP\BUILD\CMAKEFILES\GENERATE.STAMP
D:\WORKSPACE\ASTRAVIEWERCOMP\BUILD\CMAKE\CMAKEFILES\GENERATE.STAMP
D:\WORKSPACE\ASTRAVIEWERCOMP\BUILD\DOC\CMAKEFILES\GENERATE.STAMP
D:\WORKSPACE\ASTRAVIEWERCOMP\BUILD\IDL\CMAKEFILES\GENERATE.STAMP
D:\WORKSPACE\ASTRAVIEWERCOMP\BUILD\INCLUDE\CMAKEFILES\GENERATE.STAMP
D:\WORKSPACE\ASTRAVIEWERCOMP\BUILD\INCLUDE\ASTRAVIEWERCOMP\CMAKEFILES\GENERATE.STAMP
D:\WORKSPACE\ASTRAVIEWERCOMP\BUILD\SRC\CMAKEFILES\GENERATE.STAMP
